﻿A'i	A'i
Afaleu'n
Ammeu'r
B'ye	Bye
Bu'n
By'e
Byw'n
Cau'r
cloath'd	clothed
Clyw'r
Colli'r
Ddoe'n
Doe'n
Droi'r
Duw'n
Dy'n
E'n
E'n
E'r
Eiry'n
Gadu'r
Ganu'n
Garu'r
Gwae'r
Hark'e
Hayd'n	Haydn
Heark'ee	Hearken	
I'is
I'r
I'st
I'ye	I've
Jesu'n	<welsh>
Jurieu's
Look'e	Look
Mae'n
Mae'n
Mae'r
May'nt
N'ad
Ne'st
Prith'ee	Pray-thee
Rwy'n
Sy'n
The'r
Trwy'r
Wheree'r
Yw'r
angeu'r
assemb'ed	assembled
b'ye	bye
biau'r
bidd'n
bwy'r
by-t'ye
ce'st
ceingcieu'r
ch'un
chae'r
che'n
cry'dst
cry'r
cyrriau'r
d'A
d'ee
d'ye's
ddaw'r
ddonieu'n
drwy'r
dun'un
dy'n
dyry'n
e'n
e'r
echdoe'n
ee'r
feaver	fever
feaver's	fever's
fe'n
fe'n
flow'ret's
fu'n
fu'r
gi'us
godde'r
grafangeu'r
gwplau'r
gydâ'r
ha'st
hann'a
hark'e
heark'ee	hearken
heay'n	heaven
how-d'ye	how-do-ye
hwy'n
hynny'n
i'r
i'r
intricate'a	intricate-a
l'un
lord-May'r	lord-mayor
lord-may'r	lord-mayor
mae'n
mae'n
mae'n
mae'r
morning-pray'r	morning-prayer
neu'n
ninneu'n
nychu'r
obey'dst
parhau'n
raggs	rags
qu'a
qu'un
quoth'a	quotha	interjection
reply'ed	replied
s'a
shou'ld	should
states-men	statesman
subdu'dst	subduest
sy'n
t'a
talu'r
tebygai'r
th'have
they'l	they'll
thro'a
trwy'r
try'r
u'r
wheree'r	whereever
yw'n
yw'r
â'n
absorp't absorbed
